Capítulo 1 Introdução | GED-13: Probabilidade e Estatística
…
# Limpa área de trabalho
rm(list=ls())

library(tidyverse)

# Carrega os dados e armazena em um objeto do tipo tabela
pima <- read_csv("data/pima-indians-diabetes/pima-indians-diabetes.data", 
                 col_names = FALSE)

Veja que podemos obter algumas informações do objeto pima, simplesmente digitando pima. Verificamos que há um total de 768 linhas e 9 colunas. Cada coluna da tabela corresponde a uma variável (atributo) e as linhas correspondem a diferentes observações, ou seja, toda informação coletada para cada um dos indivíduos avaliados. As variáveis não tem nomes que façam sentido e todas foram codificadas como variáveis numéricas contínuas, doubles, ou números reais <dbl>.

pima

## # A tibble: 768 x 9
##       X1    X2    X3    X4    X5    X6    X7    X8    X9
##    <dbl> <dbl> <dbl> <dbl> <dbl> <dbl> <dbl> <dbl> <dbl>
##  1     6   148    72    35     0  33.6 0.627    50     1
##  2     1    85    66    29     0  26.6 0.351    31     0
##  3     8   183    64     0     0  23.3 0.672    32     1
##  4     1    89    66    23    94  28.1 0.167    21     0
##  5     0   137    40    35   168  43.1 2.29     33     1
##  6     5   116    74     0     0  25.6 0.201    30     0
##  7     3    78    50    32    88  31   0.248    26     1
##  8    10   115     0     0     0  35.3 0.134    29     0
##  9     2   197    70    45   543  30.5 0.158    53     1
## 10     8   125    96     0     0   0   0.232    54     1
## # … with 758 more rows

Vamos dar nomes às variáveis. Para isso, utilizamos o comando colnames no objeto pima e atribuímos a esse objeto o vetor contendo os nomes das variáveis.

# Atribui nomes às colunas da tabela
colnames(pima) <- c("times_pregnant","glucose_tot", "diastolic_pb",
                    "triceps", "insulin", "mass_index", "pedigree",
                    "age", "class")
pima

## # A tibble: 768 x 9
##    times_pregnant glucose_tot diastolic_pb triceps insulin mass_index pedigree
##             <dbl>       <dbl>        <dbl>   <dbl>   <dbl>      <dbl>    <dbl>
##  1              6         148           72      35       0       33.6    0.627
##  2              1          85           66      29       0       26.6    0.351
##  3              8         183           64       0       0       23.3    0.672
##  4              1          89           66      23      94       28.1    0.167
##  5              0         137           40      35     168       43.1    2.29 
##  6              5         116           74       0       0       25.6    0.201
##  7              3          78           50      32      88       31      0.248
##  8             10         115            0       0       0       35.3    0.134
##  9              2         197           70      45     543       30.5    0.158
## 10              8         125           96       0       0        0      0.232
## # … with 758 more rows, and 2 more variables: age <dbl>, class <dbl>

Também percebemos que há valores medidos para as variáveis diastolic_pb, insulin, triceps e mass_index iguais a zero. Será que correspondem a erro de codificação? Valores não observados? Há mais um problema com os dados: a variável class é categórica e precisa ser codificada adequadamente como fator; precisamos corrigir isto, bem como os outros problemas com a massa de dados.

# recodifica `class` como sendo fator
pima$class <- as.factor(pima$class) 

# muda os rótulos dos níveis do fator
levels(pima$class) <- c("neg", "pos")

# Verifica recodificação  
pima

## # A tibble: 768 x 9
##    times_pregnant glucose_tot diastolic_pb triceps insulin mass_index pedigree
##             <dbl>       <dbl>        <dbl>   <dbl>   <dbl>      <dbl>    <dbl>
##  1              6         148           72      35       0       33.6    0.627
##  2              1          85           66      29       0       26.6    0.351
##  3              8         183           64       0       0       23.3    0.672
##  4              1          89           66      23      94       28.1    0.167
##  5              0         137           40      35     168       43.1    2.29 
##  6              5         116           74       0       0       25.6    0.201
##  7              3          78           50      32      88       31      0.248
##  8             10         115            0       0       0       35.3    0.134
##  9              2         197           70      45     543       30.5    0.158
## 10              8         125           96       0       0        0      0.232
## # … with 758 more rows, and 2 more variables: age <dbl>, class <fct>
…
